^K:\DOCUMENTS\LUNAGAMEPROGRAMMING\PROGRAMS\CHAPTER 4\CHAPTER 4 - EXERCISES\CHAPTER 4 - EXERCISES\STDAFX.CPP
K:\DOCUMENTS\LUNAGAMEPROGRAMMING\PROGRAMS\CHAPTER 4\CHAPTER 4 - EXERCISES\CHAPTER 4 - EXERCISES\DEBUG\CHAPTER 4 - EXERCISES.PCH
K:\DOCUMENTS\LUNAGAMEPROGRAMMING\PROGRAMS\CHAPTER 4\CHAPTER 4 - EXERCISES\CHAPTER 4 - EXERCISES\DEBUG\VC120.PDB
K:\DOCUMENTS\LUNAGAMEPROGRAMMING\PROGRAMS\CHAPTER 4\CHAPTER 4 - EXERCISES\CHAPTER 4 - EXERCISES\DEBUG\VC120.IDB
K:\DOCUMENTS\LUNAGAMEPROGRAMMING\PROGRAMS\CHAPTER 4\CHAPTER 4 - EXERCISES\CHAPTER 4 - EXERCISES\DEBUG\STDAFX.OBJ
^K:\DOCUMENTS\LUNAGAMEPROGRAMMING\PROGRAMS\CHAPTER 4\CHAPTER 4 - EXERCISES\CHAPTER 4 - EXERCISES\CAMERA.CPP|K:\DOCUMENTS\LUNAGAMEPROGRAMMING\PROGRAMS\CHAPTER 4\CHAPTER 4 - EXERCISES\CHAPTER 4 - EXERCISES\CHAPTER 4 - EXERCISES.CPP|K:\DOCUMENTS\LUNAGAMEPROGRAMMING\PROGRAMS\CHAPTER 4\CHAPTER 4 - EXERCISES\CHAPTER 4 - EXERCISES\D3DAPP.CPP|K:\DOCUMENTS\LUNAGAMEPROGRAMMING\PROGRAMS\CHAPTER 4\CHAPTER 4 - EXERCISES\CHAPTER 4 - EXERCISES\D3DUTIL.CPP|K:\DOCUMENTS\LUNAGAMEPROGRAMMING\PROGRAMS\CHAPTER 4\CHAPTER 4 - EXERCISES\CHAPTER 4 - EXERCISES\GAMETIMER.CPP|K:\DOCUMENTS\LUNAGAMEPROGRAMMING\PROGRAMS\CHAPTER 4\CHAPTER 4 - EXERCISES\CHAPTER 4 - EXERCISES\GEOMETRYGENERATOR.CPP|K:\DOCUMENTS\LUNAGAMEPROGRAMMING\PROGRAMS\CHAPTER 4\CHAPTER 4 - EXERCISES\CHAPTER 4 - EXERCISES\LIGHTHELPER.CPP|K:\DOCUMENTS\LUNAGAMEPROGRAMMING\PROGRAMS\CHAPTER 4\CHAPTER 4 - EXERCISES\CHAPTER 4 - EXERCISES\MATHHELPER.CPP|K:\DOCUMENTS\LUNAGAMEPROGRAMMING\PROGRAMS\CHAPTER 4\CHAPTER 4 - EXERCISES\CHAPTER 4 - EXERCISES\TEXTUREMGR.CPP|K:\DOCUMENTS\LUNAGAMEPROGRAMMING\PROGRAMS\CHAPTER 4\CHAPTER 4 - EXERCISES\CHAPTER 4 - EXERCISES\WAVES.CPP
K:\DOCUMENTS\LUNAGAMEPROGRAMMING\PROGRAMS\CHAPTER 4\CHAPTER 4 - EXERCISES\CHAPTER 4 - EXERCISES\DEBUG\VC120.PDB
K:\DOCUMENTS\LUNAGAMEPROGRAMMING\PROGRAMS\CHAPTER 4\CHAPTER 4 - EXERCISES\CHAPTER 4 - EXERCISES\DEBUG\VC120.IDB
K:\DOCUMENTS\LUNAGAMEPROGRAMMING\PROGRAMS\CHAPTER 4\CHAPTER 4 - EXERCISES\CHAPTER 4 - EXERCISES\DEBUG\CAMERA.OBJ
K:\DOCUMENTS\LUNAGAMEPROGRAMMING\PROGRAMS\CHAPTER 4\CHAPTER 4 - EXERCISES\CHAPTER 4 - EXERCISES\DEBUG\CHAPTER 4 - EXERCISES.OBJ
K:\DOCUMENTS\LUNAGAMEPROGRAMMING\PROGRAMS\CHAPTER 4\CHAPTER 4 - EXERCISES\CHAPTER 4 - EXERCISES\DEBUG\D3DAPP.OBJ
K:\DOCUMENTS\LUNAGAMEPROGRAMMING\PROGRAMS\CHAPTER 4\CHAPTER 4 - EXERCISES\CHAPTER 4 - EXERCISES\DEBUG\D3DUTIL.OBJ
K:\DOCUMENTS\LUNAGAMEPROGRAMMING\PROGRAMS\CHAPTER 4\CHAPTER 4 - EXERCISES\CHAPTER 4 - EXERCISES\DEBUG\GAMETIMER.OBJ
K:\DOCUMENTS\LUNAGAMEPROGRAMMING\PROGRAMS\CHAPTER 4\CHAPTER 4 - EXERCISES\CHAPTER 4 - EXERCISES\DEBUG\GEOMETRYGENERATOR.OBJ
K:\DOCUMENTS\LUNAGAMEPROGRAMMING\PROGRAMS\CHAPTER 4\CHAPTER 4 - EXERCISES\CHAPTER 4 - EXERCISES\DEBUG\LIGHTHELPER.OBJ
K:\DOCUMENTS\LUNAGAMEPROGRAMMING\PROGRAMS\CHAPTER 4\CHAPTER 4 - EXERCISES\CHAPTER 4 - EXERCISES\DEBUG\MATHHELPER.OBJ
K:\DOCUMENTS\LUNAGAMEPROGRAMMING\PROGRAMS\CHAPTER 4\CHAPTER 4 - EXERCISES\CHAPTER 4 - EXERCISES\DEBUG\TEXTUREMGR.OBJ
K:\DOCUMENTS\LUNAGAMEPROGRAMMING\PROGRAMS\CHAPTER 4\CHAPTER 4 - EXERCISES\CHAPTER 4 - EXERCISES\DEBUG\WAVES.OBJ
^K:\DOCUMENTS\LUNAGAMEPROGRAMMING\PROGRAMS\CHAPTER 4\CHAPTER 4 - EXERCISES\CHAPTER 4 - EXERCISES\CAMERA.CPP
K:\DOCUMENTS\LUNAGAMEPROGRAMMING\PROGRAMS\CHAPTER 4\CHAPTER 4 - EXERCISES\CHAPTER 4 - EXERCISES\DEBUG\VC120.PDB
^K:\DOCUMENTS\LUNAGAMEPROGRAMMING\PROGRAMS\CHAPTER 4\CHAPTER 4 - EXERCISES\CHAPTER 4 - EXERCISES\CHAPTER 4 - EXERCISES.CPP
K:\DOCUMENTS\LUNAGAMEPROGRAMMING\PROGRAMS\CHAPTER 4\CHAPTER 4 - EXERCISES\CHAPTER 4 - EXERCISES\DEBUG\VC120.PDB
K:\DOCUMENTS\LUNAGAMEPROGRAMMING\PROGRAMS\CHAPTER 4\CHAPTER 4 - EXERCISES\CHAPTER 4 - EXERCISES\DEBUG\VC120.IDB
K:\DOCUMENTS\LUNAGAMEPROGRAMMING\PROGRAMS\CHAPTER 4\CHAPTER 4 - EXERCISES\CHAPTER 4 - EXERCISES\DEBUG\CHAPTER 4 - EXERCISES.OBJ
^K:\DOCUMENTS\LUNAGAMEPROGRAMMING\PROGRAMS\CHAPTER 4\CHAPTER 4 - EXERCISES\CHAPTER 4 - EXERCISES\D3DAPP.CPP
K:\DOCUMENTS\LUNAGAMEPROGRAMMING\PROGRAMS\CHAPTER 4\CHAPTER 4 - EXERCISES\CHAPTER 4 - EXERCISES\DEBUG\VC120.PDB
K:\DOCUMENTS\LUNAGAMEPROGRAMMING\PROGRAMS\CHAPTER 4\CHAPTER 4 - EXERCISES\CHAPTER 4 - EXERCISES\DEBUG\VC120.IDB
K:\DOCUMENTS\LUNAGAMEPROGRAMMING\PROGRAMS\CHAPTER 4\CHAPTER 4 - EXERCISES\CHAPTER 4 - EXERCISES\DEBUG\D3DAPP.OBJ
^K:\DOCUMENTS\LUNAGAMEPROGRAMMING\PROGRAMS\CHAPTER 4\CHAPTER 4 - EXERCISES\CHAPTER 4 - EXERCISES\D3DUTIL.CPP
K:\DOCUMENTS\LUNAGAMEPROGRAMMING\PROGRAMS\CHAPTER 4\CHAPTER 4 - EXERCISES\CHAPTER 4 - EXERCISES\DEBUG\VC120.PDB
^K:\DOCUMENTS\LUNAGAMEPROGRAMMING\PROGRAMS\CHAPTER 4\CHAPTER 4 - EXERCISES\CHAPTER 4 - EXERCISES\GAMETIMER.CPP
K:\DOCUMENTS\LUNAGAMEPROGRAMMING\PROGRAMS\CHAPTER 4\CHAPTER 4 - EXERCISES\CHAPTER 4 - EXERCISES\DEBUG\VC120.PDB
^K:\DOCUMENTS\LUNAGAMEPROGRAMMING\PROGRAMS\CHAPTER 4\CHAPTER 4 - EXERCISES\CHAPTER 4 - EXERCISES\GEOMETRYGENERATOR.CPP
K:\DOCUMENTS\LUNAGAMEPROGRAMMING\PROGRAMS\CHAPTER 4\CHAPTER 4 - EXERCISES\CHAPTER 4 - EXERCISES\DEBUG\VC120.PDB
^K:\DOCUMENTS\LUNAGAMEPROGRAMMING\PROGRAMS\CHAPTER 4\CHAPTER 4 - EXERCISES\CHAPTER 4 - EXERCISES\LIGHTHELPER.CPP
K:\DOCUMENTS\LUNAGAMEPROGRAMMING\PROGRAMS\CHAPTER 4\CHAPTER 4 - EXERCISES\CHAPTER 4 - EXERCISES\DEBUG\VC120.PDB
^K:\DOCUMENTS\LUNAGAMEPROGRAMMING\PROGRAMS\CHAPTER 4\CHAPTER 4 - EXERCISES\CHAPTER 4 - EXERCISES\MATHHELPER.CPP
K:\DOCUMENTS\LUNAGAMEPROGRAMMING\PROGRAMS\CHAPTER 4\CHAPTER 4 - EXERCISES\CHAPTER 4 - EXERCISES\DEBUG\VC120.PDB
^K:\DOCUMENTS\LUNAGAMEPROGRAMMING\PROGRAMS\CHAPTER 4\CHAPTER 4 - EXERCISES\CHAPTER 4 - EXERCISES\TEXTUREMGR.CPP
K:\DOCUMENTS\LUNAGAMEPROGRAMMING\PROGRAMS\CHAPTER 4\CHAPTER 4 - EXERCISES\CHAPTER 4 - EXERCISES\DEBUG\VC120.PDB
^K:\DOCUMENTS\LUNAGAMEPROGRAMMING\PROGRAMS\CHAPTER 4\CHAPTER 4 - EXERCISES\CHAPTER 4 - EXERCISES\WAVES.CPP
K:\DOCUMENTS\LUNAGAMEPROGRAMMING\PROGRAMS\CHAPTER 4\CHAPTER 4 - EXERCISES\CHAPTER 4 - EXERCISES\DEBUG\VC120.PDB
^K:\DOCUMENTS\LUNAGAMEPROGRAMMING\PROGRAMS\CHAPTER 4\CHAPTER 4 - EXERCISES\CHAPTER 4 - EXERCISES\CHAPTER 4 - EXERCISES.CPP|K:\DOCUMENTS\LUNAGAMEPROGRAMMING\PROGRAMS\CHAPTER 4\CHAPTER 4 - EXERCISES\CHAPTER 4 - EXERCISES\INIT DIRECT3D.CPP
K:\DOCUMENTS\LUNAGAMEPROGRAMMING\PROGRAMS\CHAPTER 4\CHAPTER 4 - EXERCISES\CHAPTER 4 - EXERCISES\DEBUG\VC120.PDB
K:\DOCUMENTS\LUNAGAMEPROGRAMMING\PROGRAMS\CHAPTER 4\CHAPTER 4 - EXERCISES\CHAPTER 4 - EXERCISES\DEBUG\VC120.IDB
K:\DOCUMENTS\LUNAGAMEPROGRAMMING\PROGRAMS\CHAPTER 4\CHAPTER 4 - EXERCISES\CHAPTER 4 - EXERCISES\DEBUG\CHAPTER 4 - EXERCISES.OBJ
^K:\DOCUMENTS\LUNAGAMEPROGRAMMING\PROGRAMS\CHAPTER 4\CHAPTER 4 - EXERCISES\CHAPTER 4 - EXERCISES\INIT DIRECT3D.CPP
K:\DOCUMENTS\LUNAGAMEPROGRAMMING\PROGRAMS\CHAPTER 4\CHAPTER 4 - EXERCISES\CHAPTER 4 - EXERCISES\DEBUG\VC120.PDB
K:\DOCUMENTS\LUNAGAMEPROGRAMMING\PROGRAMS\CHAPTER 4\CHAPTER 4 - EXERCISES\CHAPTER 4 - EXERCISES\DEBUG\VC120.IDB
K:\DOCUMENTS\LUNAGAMEPROGRAMMING\PROGRAMS\CHAPTER 4\CHAPTER 4 - EXERCISES\CHAPTER 4 - EXERCISES\DEBUG\INIT DIRECT3D.OBJ
^K:\DOCUMENTS\LUNAGAMEPROGRAMMING\PROGRAMS\CHAPTER 6\STANDARDPROGRAM\CHAPTER 4 - EXERCISES\STDAFX.CPP
K:\DOCUMENTS\LUNAGAMEPROGRAMMING\PROGRAMS\CHAPTER 6\STANDARDPROGRAM\CHAPTER 4 - EXERCISES\DEBUG\CHAPTER 6 - EXERCISES.PCH
K:\DOCUMENTS\LUNAGAMEPROGRAMMING\PROGRAMS\CHAPTER 6\STANDARDPROGRAM\CHAPTER 4 - EXERCISES\DEBUG\VC120.PDB
K:\DOCUMENTS\LUNAGAMEPROGRAMMING\PROGRAMS\CHAPTER 6\STANDARDPROGRAM\CHAPTER 4 - EXERCISES\DEBUG\VC120.IDB
K:\DOCUMENTS\LUNAGAMEPROGRAMMING\PROGRAMS\CHAPTER 6\STANDARDPROGRAM\CHAPTER 4 - EXERCISES\DEBUG\STDAFX.OBJ
^K:\DOCUMENTS\LUNAGAMEPROGRAMMING\PROGRAMS\CHAPTER 6\STANDARDPROGRAM\CHAPTER 4 - EXERCISES\CAMERA.CPP|K:\DOCUMENTS\LUNAGAMEPROGRAMMING\PROGRAMS\CHAPTER 6\STANDARDPROGRAM\CHAPTER 4 - EXERCISES\D3DAPP.CPP|K:\DOCUMENTS\LUNAGAMEPROGRAMMING\PROGRAMS\CHAPTER 6\STANDARDPROGRAM\CHAPTER 4 - EXERCISES\D3DUTIL.CPP|K:\DOCUMENTS\LUNAGAMEPROGRAMMING\PROGRAMS\CHAPTER 6\STANDARDPROGRAM\CHAPTER 4 - EXERCISES\GAMETIMER.CPP|K:\DOCUMENTS\LUNAGAMEPROGRAMMING\PROGRAMS\CHAPTER 6\STANDARDPROGRAM\CHAPTER 4 - EXERCISES\GEOMETRYGENERATOR.CPP|K:\DOCUMENTS\LUNAGAMEPROGRAMMING\PROGRAMS\CHAPTER 6\STANDARDPROGRAM\CHAPTER 4 - EXERCISES\INIT DIRECT3D.CPP|K:\DOCUMENTS\LUNAGAMEPROGRAMMING\PROGRAMS\CHAPTER 6\STANDARDPROGRAM\CHAPTER 4 - EXERCISES\LIGHTHELPER.CPP|K:\DOCUMENTS\LUNAGAMEPROGRAMMING\PROGRAMS\CHAPTER 6\STANDARDPROGRAM\CHAPTER 4 - EXERCISES\MATHHELPER.CPP|K:\DOCUMENTS\LUNAGAMEPROGRAMMING\PROGRAMS\CHAPTER 6\STANDARDPROGRAM\CHAPTER 4 - EXERCISES\TEXTUREMGR.CPP|K:\DOCUMENTS\LUNAGAMEPROGRAMMING\PROGRAMS\CHAPTER 6\STANDARDPROGRAM\CHAPTER 4 - EXERCISES\WAVES.CPP
K:\DOCUMENTS\LUNAGAMEPROGRAMMING\PROGRAMS\CHAPTER 6\STANDARDPROGRAM\CHAPTER 4 - EXERCISES\DEBUG\VC120.PDB
K:\DOCUMENTS\LUNAGAMEPROGRAMMING\PROGRAMS\CHAPTER 6\STANDARDPROGRAM\CHAPTER 4 - EXERCISES\DEBUG\VC120.IDB
K:\DOCUMENTS\LUNAGAMEPROGRAMMING\PROGRAMS\CHAPTER 6\STANDARDPROGRAM\CHAPTER 4 - EXERCISES\DEBUG\CAMERA.OBJ
K:\DOCUMENTS\LUNAGAMEPROGRAMMING\PROGRAMS\CHAPTER 6\STANDARDPROGRAM\CHAPTER 4 - EXERCISES\DEBUG\D3DAPP.OBJ
K:\DOCUMENTS\LUNAGAMEPROGRAMMING\PROGRAMS\CHAPTER 6\STANDARDPROGRAM\CHAPTER 4 - EXERCISES\DEBUG\D3DUTIL.OBJ
K:\DOCUMENTS\LUNAGAMEPROGRAMMING\PROGRAMS\CHAPTER 6\STANDARDPROGRAM\CHAPTER 4 - EXERCISES\DEBUG\GAMETIMER.OBJ
K:\DOCUMENTS\LUNAGAMEPROGRAMMING\PROGRAMS\CHAPTER 6\STANDARDPROGRAM\CHAPTER 4 - EXERCISES\DEBUG\GEOMETRYGENERATOR.OBJ
K:\DOCUMENTS\LUNAGAMEPROGRAMMING\PROGRAMS\CHAPTER 6\STANDARDPROGRAM\CHAPTER 4 - EXERCISES\DEBUG\INIT DIRECT3D.OBJ
K:\DOCUMENTS\LUNAGAMEPROGRAMMING\PROGRAMS\CHAPTER 6\STANDARDPROGRAM\CHAPTER 4 - EXERCISES\DEBUG\LIGHTHELPER.OBJ
K:\DOCUMENTS\LUNAGAMEPROGRAMMING\PROGRAMS\CHAPTER 6\STANDARDPROGRAM\CHAPTER 4 - EXERCISES\DEBUG\MATHHELPER.OBJ
K:\DOCUMENTS\LUNAGAMEPROGRAMMING\PROGRAMS\CHAPTER 6\STANDARDPROGRAM\CHAPTER 4 - EXERCISES\DEBUG\TEXTUREMGR.OBJ
K:\DOCUMENTS\LUNAGAMEPROGRAMMING\PROGRAMS\CHAPTER 6\STANDARDPROGRAM\CHAPTER 4 - EXERCISES\DEBUG\WAVES.OBJ
^K:\DOCUMENTS\LUNAGAMEPROGRAMMING\PROGRAMS\CHAPTER 6\STANDARDPROGRAM\CHAPTER 4 - EXERCISES\CAMERA.CPP
K:\DOCUMENTS\LUNAGAMEPROGRAMMING\PROGRAMS\CHAPTER 6\STANDARDPROGRAM\CHAPTER 4 - EXERCISES\DEBUG\VC120.PDB
^K:\DOCUMENTS\LUNAGAMEPROGRAMMING\PROGRAMS\CHAPTER 6\STANDARDPROGRAM\CHAPTER 4 - EXERCISES\D3DAPP.CPP
K:\DOCUMENTS\LUNAGAMEPROGRAMMING\PROGRAMS\CHAPTER 6\STANDARDPROGRAM\CHAPTER 4 - EXERCISES\DEBUG\VC120.PDB
K:\DOCUMENTS\LUNAGAMEPROGRAMMING\PROGRAMS\CHAPTER 6\STANDARDPROGRAM\CHAPTER 4 - EXERCISES\DEBUG\VC120.IDB
K:\DOCUMENTS\LUNAGAMEPROGRAMMING\PROGRAMS\CHAPTER 6\STANDARDPROGRAM\CHAPTER 4 - EXERCISES\DEBUG\D3DAPP.OBJ
^K:\DOCUMENTS\LUNAGAMEPROGRAMMING\PROGRAMS\CHAPTER 6\STANDARDPROGRAM\CHAPTER 4 - EXERCISES\D3DUTIL.CPP
K:\DOCUMENTS\LUNAGAMEPROGRAMMING\PROGRAMS\CHAPTER 6\STANDARDPROGRAM\CHAPTER 4 - EXERCISES\DEBUG\VC120.PDB
^K:\DOCUMENTS\LUNAGAMEPROGRAMMING\PROGRAMS\CHAPTER 6\STANDARDPROGRAM\CHAPTER 4 - EXERCISES\GAMETIMER.CPP
K:\DOCUMENTS\LUNAGAMEPROGRAMMING\PROGRAMS\CHAPTER 6\STANDARDPROGRAM\CHAPTER 4 - EXERCISES\DEBUG\VC120.PDB
^K:\DOCUMENTS\LUNAGAMEPROGRAMMING\PROGRAMS\CHAPTER 6\STANDARDPROGRAM\CHAPTER 4 - EXERCISES\GEOMETRYGENERATOR.CPP
K:\DOCUMENTS\LUNAGAMEPROGRAMMING\PROGRAMS\CHAPTER 6\STANDARDPROGRAM\CHAPTER 4 - EXERCISES\DEBUG\VC120.PDB
^K:\DOCUMENTS\LUNAGAMEPROGRAMMING\PROGRAMS\CHAPTER 6\STANDARDPROGRAM\CHAPTER 4 - EXERCISES\INIT DIRECT3D.CPP
K:\DOCUMENTS\LUNAGAMEPROGRAMMING\PROGRAMS\CHAPTER 6\STANDARDPROGRAM\CHAPTER 4 - EXERCISES\DEBUG\VC120.PDB
^K:\DOCUMENTS\LUNAGAMEPROGRAMMING\PROGRAMS\CHAPTER 6\STANDARDPROGRAM\CHAPTER 4 - EXERCISES\LIGHTHELPER.CPP
K:\DOCUMENTS\LUNAGAMEPROGRAMMING\PROGRAMS\CHAPTER 6\STANDARDPROGRAM\CHAPTER 4 - EXERCISES\DEBUG\VC120.PDB
^K:\DOCUMENTS\LUNAGAMEPROGRAMMING\PROGRAMS\CHAPTER 6\STANDARDPROGRAM\CHAPTER 4 - EXERCISES\MATHHELPER.CPP
K:\DOCUMENTS\LUNAGAMEPROGRAMMING\PROGRAMS\CHAPTER 6\STANDARDPROGRAM\CHAPTER 4 - EXERCISES\DEBUG\VC120.PDB
^K:\DOCUMENTS\LUNAGAMEPROGRAMMING\PROGRAMS\CHAPTER 6\STANDARDPROGRAM\CHAPTER 4 - EXERCISES\TEXTUREMGR.CPP
K:\DOCUMENTS\LUNAGAMEPROGRAMMING\PROGRAMS\CHAPTER 6\STANDARDPROGRAM\CHAPTER 4 - EXERCISES\DEBUG\VC120.PDB
^K:\DOCUMENTS\LUNAGAMEPROGRAMMING\PROGRAMS\CHAPTER 6\STANDARDPROGRAM\CHAPTER 4 - EXERCISES\WAVES.CPP
K:\DOCUMENTS\LUNAGAMEPROGRAMMING\PROGRAMS\CHAPTER 6\STANDARDPROGRAM\CHAPTER 4 - EXERCISES\DEBUG\VC120.PDB
