^K:\DOCUMENTS\SHADOWMAPPING\CHAPTER 4 - EXERCISES\STDAFX.CPP
K:\DOCUMENTS\SHADOWMAPPING\CHAPTER 4 - EXERCISES\DEBUG\CHAPTER 6 - EXERCISES.PCH
K:\DOCUMENTS\SHADOWMAPPING\CHAPTER 4 - EXERCISES\DEBUG\STDAFX.OBJ
K:\DOCUMENTS\SHADOWMAPPING\CHAPTER 4 - EXERCISES\DEBUG\VC100.PDB
K:\DOCUMENTS\SHADOWMAPPING\CHAPTER 4 - EXERCISES\DEBUG\SHADOWS.PCH
^K:\DOCUMENTS\SHADOWMAPPING\CHAPTER 4 - EXERCISES\BOXDEMO.CPP|K:\DOCUMENTS\SHADOWMAPPING\CHAPTER 4 - EXERCISES\CAMERA.CPP|K:\DOCUMENTS\SHADOWMAPPING\CHAPTER 4 - EXERCISES\D3DAPP.CPP|K:\DOCUMENTS\SHADOWMAPPING\CHAPTER 4 - EXERCISES\D3DUTIL.CPP|K:\DOCUMENTS\SHADOWMAPPING\CHAPTER 4 - EXERCISES\EXERCISE_3.CPP|K:\DOCUMENTS\SHADOWMAPPING\CHAPTER 4 - EXERCISES\GAMETIMER.CPP|K:\DOCUMENTS\SHADOWMAPPING\CHAPTER 4 - EXERCISES\GEOMETRYGENERATOR.CPP|K:\DOCUMENTS\SHADOWMAPPING\CHAPTER 4 - EXERCISES\LIGHTHELPER.CPP|K:\DOCUMENTS\SHADOWMAPPING\CHAPTER 4 - EXERCISES\MATHHELPER.CPP|K:\DOCUMENTS\SHADOWMAPPING\CHAPTER 4 - EXERCISES\TEXTUREMGR.CPP|K:\DOCUMENTS\SHADOWMAPPING\CHAPTER 4 - EXERCISES\WAVES.CPP
K:\DOCUMENTS\SHADOWMAPPING\CHAPTER 4 - EXERCISES\DEBUG\BOXDEMO.OBJ
K:\DOCUMENTS\SHADOWMAPPING\CHAPTER 4 - EXERCISES\DEBUG\CAMERA.OBJ
K:\DOCUMENTS\SHADOWMAPPING\CHAPTER 4 - EXERCISES\DEBUG\D3DAPP.OBJ
K:\DOCUMENTS\SHADOWMAPPING\CHAPTER 4 - EXERCISES\DEBUG\D3DUTIL.OBJ
K:\DOCUMENTS\SHADOWMAPPING\CHAPTER 4 - EXERCISES\DEBUG\GAMETIMER.OBJ
K:\DOCUMENTS\SHADOWMAPPING\CHAPTER 4 - EXERCISES\DEBUG\GEOMETRYGENERATOR.OBJ
K:\DOCUMENTS\SHADOWMAPPING\CHAPTER 4 - EXERCISES\DEBUG\LIGHTHELPER.OBJ
K:\DOCUMENTS\SHADOWMAPPING\CHAPTER 4 - EXERCISES\DEBUG\MATHHELPER.OBJ
K:\DOCUMENTS\SHADOWMAPPING\CHAPTER 4 - EXERCISES\DEBUG\TEXTUREMGR.OBJ
K:\DOCUMENTS\SHADOWMAPPING\CHAPTER 4 - EXERCISES\DEBUG\WAVES.OBJ
^K:\DOCUMENTS\SHADOWMAPPING\CHAPTER 4 - EXERCISES\BOXDEMO.CPP
K:\DOCUMENTS\SHADOWMAPPING\CHAPTER 4 - EXERCISES\DEBUG\VC100.PDB
K:\DOCUMENTS\SHADOWMAPPING\CHAPTER 4 - EXERCISES\DEBUG\BOXDEMO.OBJ
^K:\DOCUMENTS\SHADOWMAPPING\CHAPTER 4 - EXERCISES\CAMERA.CPP
K:\DOCUMENTS\SHADOWMAPPING\CHAPTER 4 - EXERCISES\DEBUG\VC100.PDB
^K:\DOCUMENTS\SHADOWMAPPING\CHAPTER 4 - EXERCISES\D3DAPP.CPP
K:\DOCUMENTS\SHADOWMAPPING\CHAPTER 4 - EXERCISES\DEBUG\VC100.PDB
^K:\DOCUMENTS\SHADOWMAPPING\CHAPTER 4 - EXERCISES\D3DUTIL.CPP
K:\DOCUMENTS\SHADOWMAPPING\CHAPTER 4 - EXERCISES\DEBUG\VC100.PDB
^K:\DOCUMENTS\SHADOWMAPPING\CHAPTER 4 - EXERCISES\EXERCISE_3.CPP
K:\DOCUMENTS\SHADOWMAPPING\CHAPTER 4 - EXERCISES\DEBUG\VC100.PDB
^K:\DOCUMENTS\SHADOWMAPPING\CHAPTER 4 - EXERCISES\GAMETIMER.CPP
K:\DOCUMENTS\SHADOWMAPPING\CHAPTER 4 - EXERCISES\DEBUG\VC100.PDB
^K:\DOCUMENTS\SHADOWMAPPING\CHAPTER 4 - EXERCISES\GEOMETRYGENERATOR.CPP
K:\DOCUMENTS\SHADOWMAPPING\CHAPTER 4 - EXERCISES\DEBUG\VC100.PDB
^K:\DOCUMENTS\SHADOWMAPPING\CHAPTER 4 - EXERCISES\LIGHTHELPER.CPP
K:\DOCUMENTS\SHADOWMAPPING\CHAPTER 4 - EXERCISES\DEBUG\VC100.PDB
^K:\DOCUMENTS\SHADOWMAPPING\CHAPTER 4 - EXERCISES\MATHHELPER.CPP
K:\DOCUMENTS\SHADOWMAPPING\CHAPTER 4 - EXERCISES\DEBUG\VC100.PDB
^K:\DOCUMENTS\SHADOWMAPPING\CHAPTER 4 - EXERCISES\TEXTUREMGR.CPP
K:\DOCUMENTS\SHADOWMAPPING\CHAPTER 4 - EXERCISES\DEBUG\VC100.PDB
^K:\DOCUMENTS\SHADOWMAPPING\CHAPTER 4 - EXERCISES\WAVES.CPP
K:\DOCUMENTS\SHADOWMAPPING\CHAPTER 4 - EXERCISES\DEBUG\VC100.PDB
^K:\DOCUMENTS\SHADOWMAPPING\CHAPTER 4 - EXERCISES\CAMERA.CPP|K:\DOCUMENTS\SHADOWMAPPING\CHAPTER 4 - EXERCISES\D3DAPP.CPP|K:\DOCUMENTS\SHADOWMAPPING\CHAPTER 4 - EXERCISES\D3DUTIL.CPP|K:\DOCUMENTS\SHADOWMAPPING\CHAPTER 4 - EXERCISES\GAMETIMER.CPP|K:\DOCUMENTS\SHADOWMAPPING\CHAPTER 4 - EXERCISES\GEOMETRYGENERATOR.CPP|K:\DOCUMENTS\SHADOWMAPPING\CHAPTER 4 - EXERCISES\LIGHTHELPER.CPP|K:\DOCUMENTS\SHADOWMAPPING\CHAPTER 4 - EXERCISES\MATHHELPER.CPP|K:\DOCUMENTS\SHADOWMAPPING\CHAPTER 4 - EXERCISES\SHADOWS.CPP|K:\DOCUMENTS\SHADOWMAPPING\CHAPTER 4 - EXERCISES\TEXTUREMGR.CPP|K:\DOCUMENTS\SHADOWMAPPING\CHAPTER 4 - EXERCISES\WAVES.CPP
K:\DOCUMENTS\SHADOWMAPPING\CHAPTER 4 - EXERCISES\DEBUG\SHADOWS.OBJ
K:\DOCUMENTS\SHADOWMAPPING\CHAPTER 4 - EXERCISES\DEBUG\CAMERA.OBJ
K:\DOCUMENTS\SHADOWMAPPING\CHAPTER 4 - EXERCISES\DEBUG\D3DAPP.OBJ
K:\DOCUMENTS\SHADOWMAPPING\CHAPTER 4 - EXERCISES\DEBUG\D3DUTIL.OBJ
K:\DOCUMENTS\SHADOWMAPPING\CHAPTER 4 - EXERCISES\DEBUG\GAMETIMER.OBJ
K:\DOCUMENTS\SHADOWMAPPING\CHAPTER 4 - EXERCISES\DEBUG\GEOMETRYGENERATOR.OBJ
K:\DOCUMENTS\SHADOWMAPPING\CHAPTER 4 - EXERCISES\DEBUG\LIGHTHELPER.OBJ
K:\DOCUMENTS\SHADOWMAPPING\CHAPTER 4 - EXERCISES\DEBUG\MATHHELPER.OBJ
K:\DOCUMENTS\SHADOWMAPPING\CHAPTER 4 - EXERCISES\DEBUG\TEXTUREMGR.OBJ
K:\DOCUMENTS\SHADOWMAPPING\CHAPTER 4 - EXERCISES\DEBUG\WAVES.OBJ
^K:\DOCUMENTS\SHADOWMAPPING\CHAPTER 4 - EXERCISES\SHADOWS.CPP
K:\DOCUMENTS\SHADOWMAPPING\CHAPTER 4 - EXERCISES\DEBUG\VC100.PDB
^K:\DOCUMENTS\SHADOWMAPPING\CHAPTER 4 - EXERCISES\SHADOWSAPP.CPP
K:\DOCUMENTS\SHADOWMAPPING\CHAPTER 4 - EXERCISES\DEBUG\SHADOWSAPP.OBJ
K:\DOCUMENTS\SHADOWMAPPING\CHAPTER 4 - EXERCISES\DEBUG\VC100.PDB
^K:\DOCUMENTS\SHADOWMAPPING\CHAPTER 4 - EXERCISES\CAMERA.CPP|K:\DOCUMENTS\SHADOWMAPPING\CHAPTER 4 - EXERCISES\D3DAPP.CPP|K:\DOCUMENTS\SHADOWMAPPING\CHAPTER 4 - EXERCISES\D3DUTIL.CPP|K:\DOCUMENTS\SHADOWMAPPING\CHAPTER 4 - EXERCISES\LIGHTHELPER.CPP|K:\DOCUMENTS\SHADOWMAPPING\CHAPTER 4 - EXERCISES\SHADOWSAPP.CPP
K:\DOCUMENTS\SHADOWMAPPING\CHAPTER 4 - EXERCISES\DEBUG\CAMERA.OBJ
K:\DOCUMENTS\SHADOWMAPPING\CHAPTER 4 - EXERCISES\DEBUG\D3DAPP.OBJ
K:\DOCUMENTS\SHADOWMAPPING\CHAPTER 4 - EXERCISES\DEBUG\D3DUTIL.OBJ
K:\DOCUMENTS\SHADOWMAPPING\CHAPTER 4 - EXERCISES\DEBUG\SHADOWSAPP.OBJ
K:\DOCUMENTS\SHADOWMAPPING\CHAPTER 4 - EXERCISES\DEBUG\LIGHTHELPER.OBJ
^K:\DOCUMENTS\SHADOWMAPPING\CHAPTER 4 - EXERCISES\LIGHTHELPER.CPP|K:\DOCUMENTS\SHADOWMAPPING\CHAPTER 4 - EXERCISES\SHADOWSAPP.CPP
^K:\DOCUMENTS\SHADOWMAPPING\CHAPTER 4 - EXERCISES\SHADOWMAP.CPP|K:\DOCUMENTS\SHADOWMAPPING\CHAPTER 4 - EXERCISES\SHADOWSAPP.CPP
K:\DOCUMENTS\SHADOWMAPPING\CHAPTER 4 - EXERCISES\DEBUG\SHADOWMAP.OBJ
K:\DOCUMENTS\SHADOWMAPPING\CHAPTER 4 - EXERCISES\DEBUG\SHADOWSAPP.OBJ
^K:\DOCUMENTS\SHADOWMAPPING\CHAPTER 4 - EXERCISES\SHADOWMAP.CPP
K:\DOCUMENTS\SHADOWMAPPING\CHAPTER 4 - EXERCISES\DEBUG\VC100.PDB
